[
  {
    "model": "role.role",
    "pk": "PR20200400001",
    "fields": {
      "name": "Actor",
      "datetime_created": "2020-04-21T22:16:19Z",
      "account_created": "1"
    }
  },
  {
    "model": "role.role",
    "pk": "PR20200400002",
    "fields": {
      "name": "Writer",
      "datetime_created": "2020-04-21T22:24:10Z",
      "account_created": "1"
    }
  },
  {
    "model": "role.role",
    "pk": "PR20200400003",
    "fields": {
      "name": "Director",
      "datetime_created": "2020-04-21T22:24:10Z",
      "account_created": "1"
    }
  }
]
