[
  {
    "model": "studio.studio",
    "pk": "ST202002000001",
    "fields": {
      "name": "100UU",
      "datetime_created": "2020-02-04T00:00:00Z",
      "account_created": "1"
    }
  },
  {
    "model": "studio.studio",
    "pk": "ST202002000002",
    "fields": {
      "name": "A&E",
      "datetime_created": "2020-02-04T00:00:00Z",
      "account_created": "1"
    }
  },
  {
    "model": "studio.studio",
    "pk": "ST202002000003",
    "fields": {
      "name": "AIRPLAY",
      "datetime_created": "2020-02-04T00:00:00Z",
      "account_created": "1"
    }
  },
  {
    "model": "studio.studio",
    "pk": "ST202002000004",
    "fields": {
      "name": "ANIMACCORD",
      "datetime_created": "2020-02-04T00:00:00Z",
      "account_created": "1"
    }
  },
  {
    "model": "studio.studio",
    "pk": "ST202002000005",
    "fields": {
      "name": "AP&J",
      "datetime_created": "2020-02-04T00:00:00Z",
      "account_created": "1"
    }
  },
  {
    "model": "studio.studio",
    "pk": "ST202002000006",
    "fields": {
      "name": "ARTFO",
      "datetime_created": "2020-02-04T00:00:00Z",
      "account_created": "1"
    }
  },
  {
    "model": "studio.studio",
    "pk": "ST202002000007",
    "fields": {
      "name": "ARTOP",
      "datetime_created": "2020-02-04T00:00:00Z",
      "account_created": "1"
    }
  },
  {
    "model": "studio.studio",
    "pk": "ST202002000008",
    "fields": {
      "name": "ARTOP MEDIA (THAILAND) CO. LTD.",
      "datetime_created": "2020-02-04T00:00:00Z",
      "account_created": "1"
    }
  },
  {
    "model": "studio.studio",
    "pk": "ST202002000009",
    "fields": {
      "name": "BANJONGTAM",
      "datetime_created": "2020-02-04T00:00:00Z",
      "account_created": "1"
    }
  },
  {
    "model": "studio.studio",
    "pk": "ST202002000010",
    "fields": {
      "name": "BEBOYD",
      "datetime_created": "2020-02-04T00:00:00Z",
      "account_created": "1"
    }
  },
  {
    "model": "studio.studio",
    "pk": "ST202002000011",
    "fields": {
      "name": "BHAPPY",
      "datetime_created": "2020-02-04T00:00:00Z",
      "account_created": "1"
    }
  },
  {
    "model": "studio.studio",
    "pk": "ST202002000012",
    "fields": {
      "name": "BIGBANG",
      "datetime_created": "2020-02-04T00:00:00Z",
      "account_created": "1"
    }
  },
  {
    "model": "studio.studio",
    "pk": "ST202002000013",
    "fields": {
      "name": "Blue Ant Media",
      "datetime_created": "2020-02-04T00:00:00Z",
      "account_created": "1"
    }
  },
  {
    "model": "studio.studio",
    "pk": "ST202002000014",
    "fields": {
      "name": "BOMAN",
      "datetime_created": "2020-02-04T00:00:00Z",
      "account_created": "1"
    }
  },
  {
    "model": "studio.studio",
    "pk": "ST202002000015",
    "fields": {
      "name": "BRIGHT",
      "datetime_created": "2020-02-04T00:00:00Z",
      "account_created": "1"
    }
  },
  {
    "model": "studio.studio",
    "pk": "ST202002000016",
    "fields": {
      "name": "BS",
      "datetime_created": "2020-02-04T00:00:00Z",
      "account_created": "1"
    }
  },
  {
    "model": "studio.studio",
    "pk": "ST202002000017",
    "fields": {
      "name": "Cartoon Club",
      "datetime_created": "2020-02-04T00:00:00Z",
      "account_created": "1"
    }
  },
  {
    "model": "studio.studio",
    "pk": "ST202002000018",
    "fields": {
      "name": "CGPixel",
      "datetime_created": "2020-02-04T00:00:00Z",
      "account_created": "1"
    }
  },
  {
    "model": "studio.studio",
    "pk": "ST202002000019",
    "fields": {
      "name": "CH3",
      "datetime_created": "2020-02-04T00:00:00Z",
      "account_created": "1"
    }
  },
  {
    "model": "studio.studio",
    "pk": "ST202002000020",
    "fields": {
      "name": "CIN",
      "datetime_created": "2020-02-04T00:00:00Z",
      "account_created": "1"
    }
  },
  {
    "model": "studio.studio",
    "pk": "ST202002000021",
    "fields": {
      "name": "Cineplex",
      "datetime_created": "2020-02-04T00:00:00Z",
      "account_created": "1"
    }
  },
  {
    "model": "studio.studio",
    "pk": "ST202002000022",
    "fields": {
      "name": "CITV",
      "datetime_created": "2020-02-04T00:00:00Z",
      "account_created": "1"
    }
  },
  {
    "model": "studio.studio",
    "pk": "ST202002000023",
    "fields": {
      "name": "CJ E&M Corporation",
      "datetime_created": "2020-02-04T00:00:00Z",
      "account_created": "1"
    }
  },
  {
    "model": "studio.studio",
    "pk": "ST202002000024",
    "fields": {
      "name": "CJ ENM Co., Ltd",
      "datetime_created": "2020-02-04T00:00:00Z",
      "account_created": "1"
    }
  },
  {
    "model": "studio.studio",
    "pk": "ST202002000025",
    "fields": {
      "name": "CYBER",
      "datetime_created": "2020-02-04T00:00:00Z",
      "account_created": "1"
    }
  },
  {
    "model": "studio.studio",
    "pk": "ST202002000026",
    "fields": {
      "name": "DAEHAN",
      "datetime_created": "2020-02-04T00:00:00Z",
      "account_created": "1"
    }
  },
  {
    "model": "studio.studio",
    "pk": "ST202002000027",
    "fields": {
      "name": "DAUGHTER",
      "datetime_created": "2020-02-04T00:00:00Z",
      "account_created": "1"
    }
  },
  {
    "model": "studio.studio",
    "pk": "ST202002000028",
    "fields": {
      "name": "DAVINCI",
      "datetime_created": "2020-02-04T00:00:00Z",
      "account_created": "1"
    }
  },
  {
    "model": "studio.studio",
    "pk": "ST202002000029",
    "fields": {
      "name": "DE WARRENNE PICTURES CO. LTD.",
      "datetime_created": "2020-02-04T00:00:00Z",
      "account_created": "1"
    }
  },
  {
    "model": "studio.studio",
    "pk": "ST202002000030",
    "fields": {
      "name": "DEC MEDIA",
      "datetime_created": "2020-02-04T00:00:00Z",
      "account_created": "1"
    }
  },
  {
    "model": "studio.studio",
    "pk": "ST202002000031",
    "fields": {
      "name": "DEX",
      "datetime_created": "2020-02-04T00:00:00Z",
      "account_created": "1"
    }
  },
  {
    "model": "studio.studio",
    "pk": "ST202002000032",
    "fields": {
      "name": "DIK",
      "datetime_created": "2020-02-04T00:00:00Z",
      "account_created": "1"
    }
  },
  {
    "model": "studio.studio",
    "pk": "ST202002000033",
    "fields": {
      "name": "DIST-360",
      "datetime_created": "2020-02-04T00:00:00Z",
      "account_created": "1"
    }
  },
  {
    "model": "studio.studio",
    "pk": "ST202002000034",
    "fields": {
      "name": "Distribution Workshop (HK)",
      "datetime_created": "2020-02-04T00:00:00Z",
      "account_created": "1"
    }
  },
  {
    "model": "studio.studio",
    "pk": "ST202002000035",
    "fields": {
      "name": "DREAMBOX MEDIA CO. LTD.",
      "datetime_created": "2020-02-04T00:00:00Z",
      "account_created": "1"
    }
  },
  {
    "model": "studio.studio",
    "pk": "ST202002000036",
    "fields": {
      "name": "DW",
      "datetime_created": "2020-02-04T00:00:00Z",
      "account_created": "1"
    }
  },
  {
    "model": "studio.studio",
    "pk": "ST202002000037",
    "fields": {
      "name": "E ONE",
      "datetime_created": "2020-02-04T00:00:00Z",
      "account_created": "1"
    }
  },
  {
    "model": "studio.studio",
    "pk": "ST202002000038",
    "fields": {
      "name": "echo",
      "datetime_created": "2020-02-04T00:00:00Z",
      "account_created": "1"
    }
  },
  {
    "model": "studio.studio",
    "pk": "ST202002000039",
    "fields": {
      "name": "EIGHTYNINE DREAMS CO. LTD.",
      "datetime_created": "2020-02-04T00:00:00Z",
      "account_created": "1"
    }
  },
  {
    "model": "studio.studio",
    "pk": "ST202002000040",
    "fields": {
      "name": "ELECTRICEELFILMS",
      "datetime_created": "2020-02-04T00:00:00Z",
      "account_created": "1"
    }
  },
  {
    "model": "studio.studio",
    "pk": "ST202002000041",
    "fields": {
      "name": "Emperor Motion Picture (HK)",
      "datetime_created": "2020-02-04T00:00:00Z",
      "account_created": "1"
    }
  },
  {
    "model": "studio.studio",
    "pk": "ST202002000042",
    "fields": {
      "name": "Entertaining Power (HK)",
      "datetime_created": "2020-02-04T00:00:00Z",
      "account_created": "1"
    }
  },
  {
    "model": "studio.studio",
    "pk": "ST202002000043",
    "fields": {
      "name": "exploratio",
      "datetime_created": "2020-02-04T00:00:00Z",
      "account_created": "1"
    }
  },
  {
    "model": "studio.studio",
    "pk": "ST202002000044",
    "fields": {
      "name": "EXTRA VIRGIN CO. LTD.",
      "datetime_created": "2020-02-04T00:00:00Z",
      "account_created": "1"
    }
  },
  {
    "model": "studio.studio",
    "pk": "ST202002000045",
    "fields": {
      "name": "FILM CHILL",
      "datetime_created": "2020-02-04T00:00:00Z",
      "account_created": "1"
    }
  },
  {
    "model": "studio.studio",
    "pk": "ST202002000046",
    "fields": {
      "name": "FLAME DIST",
      "datetime_created": "2020-02-04T00:00:00Z",
      "account_created": "1"
    }
  },
  {
    "model": "studio.studio",
    "pk": "ST202002000047",
    "fields": {
      "name": "Fortune Star (HK)",
      "datetime_created": "2020-02-04T00:00:00Z",
      "account_created": "1"
    }
  },
  {
    "model": "studio.studio",
    "pk": "ST202002000048",
    "fields": {
      "name": "Fox (US)",
      "datetime_created": "2020-02-04T00:00:00Z",
      "account_created": "1"
    }
  },
  {
    "model": "studio.studio",
    "pk": "ST202002000049",
    "fields": {
      "name": "FRED MEDIA",
      "datetime_created": "2020-02-04T00:00:00Z",
      "account_created": "1"
    }
  },
  {
    "model": "studio.studio",
    "pk": "ST202002000050",
    "fields": {
      "name": "FUJITV",
      "datetime_created": "2020-02-04T00:00:00Z",
      "account_created": "1"
    }
  },
  {
    "model": "studio.studio",
    "pk": "ST202002000051",
    "fields": {
      "name": "G MOTIF PRODUCTION CO., LTD.",
      "datetime_created": "2020-02-04T00:00:00Z",
      "account_created": "1"
    }
  },
  {
    "model": "studio.studio",
    "pk": "ST202002000052",
    "fields": {
      "name": "GDH (TH)",
      "datetime_created": "2020-02-04T00:00:00Z",
      "account_created": "1"
    }
  },
  {
    "model": "studio.studio",
    "pk": "ST202002000053",
    "fields": {
      "name": "GTH (TH)",
      "datetime_created": "2020-02-04T00:00:00Z",
      "account_created": "1"
    }
  },
  {
    "model": "studio.studio",
    "pk": "ST202002000054",
    "fields": {
      "name": "GMM Grammy",
      "datetime_created": "2020-02-04T00:00:00Z",
      "account_created": "1"
    }
  },
  {
    "model": "studio.studio",
    "pk": "ST202002000055",
    "fields": {
      "name": "GMMTV",
      "datetime_created": "2020-02-04T00:00:00Z",
      "account_created": "1"
    }
  },
  {
    "model": "studio.studio",
    "pk": "ST202002000056",
    "fields": {
      "name": "GOB",
      "datetime_created": "2020-02-04T00:00:00Z",
      "account_created": "1"
    }
  },
  {
    "model": "studio.studio",
    "pk": "ST202002000057",
    "fields": {
      "name": "Greener Glass",
      "datetime_created": "2020-02-04T00:00:00Z",
      "account_created": "1"
    }
  },
  {
    "model": "studio.studio",
    "pk": "ST202002000058",
    "fields": {
      "name": "Halo Productions",
      "datetime_created": "2020-02-04T00:00:00Z",
      "account_created": "1"
    }
  },
  {
    "model": "studio.studio",
    "pk": "ST202002000059",
    "fields": {
      "name": "Hangzhou IX Media Co.,Ltd",
      "datetime_created": "2020-02-04T00:00:00Z",
      "account_created": "1"
    }
  },
  {
    "model": "studio.studio",
    "pk": "ST202002000060",
    "fields": {
      "name": "HARBOUR",
      "datetime_created": "2020-02-04T00:00:00Z",
      "account_created": "1"
    }
  },
  {
    "model": "studio.studio",
    "pk": "ST202002000061",
    "fields": {
      "name": "HAT TRICK",
      "datetime_created": "2020-02-04T00:00:00Z",
      "account_created": "1"
    }
  },
  {
    "model": "studio.studio",
    "pk": "ST202002000062",
    "fields": {
      "name": "HIT COM",
      "datetime_created": "2020-02-04T00:00:00Z",
      "account_created": "1"
    }
  },
  {
    "model": "studio.studio",
    "pk": "ST202002000063",
    "fields": {
      "name": "HOKHANUMAN",
      "datetime_created": "2020-02-04T00:00:00Z",
      "account_created": "1"
    }
  },
  {
    "model": "studio.studio",
    "pk": "ST202002000064",
    "fields": {
      "name": "Hollywood Thailand",
      "datetime_created": "2020-02-04T00:00:00Z",
      "account_created": "1"
    }
  },
  {
    "model": "studio.studio",
    "pk": "ST202002000065",
    "fields": {
      "name": "ICONIX",
      "datetime_created": "2020-02-04T00:00:00Z",
      "account_created": "1"
    }
  },
  {
    "model": "studio.studio",
    "pk": "ST202002000066",
    "fields": {
      "name": "IMG",
      "datetime_created": "2020-02-04T00:00:00Z",
      "account_created": "1"
    }
  },
  {
    "model": "studio.studio",
    "pk": "ST202002000067",
    "fields": {
      "name": "INDY",
      "datetime_created": "2020-02-04T00:00:00Z",
      "account_created": "1"
    }
  },
  {
    "model": "studio.studio",
    "pk": "ST202002000068",
    "fields": {
      "name": "INTERCON MEDIA",
      "datetime_created": "2020-02-04T00:00:00Z",
      "account_created": "1"
    }
  },
  {
    "model": "studio.studio",
    "pk": "ST202002000069",
    "fields": {
      "name": "ITV GLOBAL",
      "datetime_created": "2020-02-04T00:00:00Z",
      "account_created": "1"
    }
  },
  {
    "model": "studio.studio",
    "pk": "ST202002000070",
    "fields": {
      "name": "JAIBOON",
      "datetime_created": "2020-02-04T00:00:00Z",
      "account_created": "1"
    }
  },
  {
    "model": "studio.studio",
    "pk": "ST202002000071",
    "fields": {
      "name": "JTBC",
      "datetime_created": "2020-02-04T00:00:00Z",
      "account_created": "1"
    }
  },
  {
    "model": "studio.studio",
    "pk": "ST202002000072",
    "fields": {
      "name": "JTBC Content Hub",
      "datetime_created": "2020-02-04T00:00:00Z",
      "account_created": "1"
    }
  },
  {
    "model": "studio.studio",
    "pk": "ST202002000073",
    "fields": {
      "name": "KAOJAI",
      "datetime_created": "2020-02-04T00:00:00Z",
      "account_created": "1"
    }
  },
  {
    "model": "studio.studio",
    "pk": "ST202002000074",
    "fields": {
      "name": "KBS MEDIA ENTERPRISES",
      "datetime_created": "2020-02-04T00:00:00Z",
      "account_created": "1"
    }
  },
  {
    "model": "studio.studio",
    "pk": "ST202002000075",
    "fields": {
      "name": "Kidz & Kitz",
      "datetime_created": "2020-02-04T00:00:00Z",
      "account_created": "1"
    }
  },
  {
    "model": "studio.studio",
    "pk": "ST202002000076",
    "fields": {
      "name": "King Content",
      "datetime_created": "2020-02-04T00:00:00Z",
      "account_created": "1"
    }
  },
  {
    "model": "studio.studio",
    "pk": "ST202002000077",
    "fields": {
      "name": "King Content Co Ltd",
      "datetime_created": "2020-02-04T00:00:00Z",
      "account_created": "1"
    }
  },
  {
    "model": "studio.studio",
    "pk": "ST202002000078",
    "fields": {
      "name": "KM PLUS",
      "datetime_created": "2020-02-04T00:00:00Z",
      "account_created": "1"
    }
  },
  {
    "model": "studio.studio",
    "pk": "ST202002000079",
    "fields": {
      "name": "Kwanza",
      "datetime_created": "2020-02-04T00:00:00Z",
      "account_created": "1"
    }
  },
  {
    "model": "studio.studio",
    "pk": "ST202002000080",
    "fields": {
      "name": "LAN",
      "datetime_created": "2020-02-04T00:00:00Z",
      "account_created": "1"
    }
  },
  {
    "model": "studio.studio",
    "pk": "ST202002000081",
    "fields": {
      "name": "LASERCAT",
      "datetime_created": "2020-02-04T00:00:00Z",
      "account_created": "1"
    }
  },
  {
    "model": "studio.studio",
    "pk": "ST202002000082",
    "fields": {
      "name": "LIAN CONTENTS",
      "datetime_created": "2020-02-04T00:00:00Z",
      "account_created": "1"
    }
  },
  {
    "model": "studio.studio",
    "pk": "ST202002000083",
    "fields": {
      "name": "LIGHTNING",
      "datetime_created": "2020-02-04T00:00:00Z",
      "account_created": "1"
    }
  },
  {
    "model": "studio.studio",
    "pk": "ST202002000084",
    "fields": {
      "name": "LINEAGE S",
      "datetime_created": "2020-02-04T00:00:00Z",
      "account_created": "1"
    }
  },
  {
    "model": "studio.studio",
    "pk": "ST202002000085",
    "fields": {
      "name": "Love Alert",
      "datetime_created": "2020-02-04T00:00:00Z",
      "account_created": "1"
    }
  },
  {
    "model": "studio.studio",
    "pk": "ST202002000086",
    "fields": {
      "name": "LOVETITUDE",
      "datetime_created": "2020-02-04T00:00:00Z",
      "account_created": "1"
    }
  },
  {
    "model": "studio.studio",
    "pk": "ST202002000087",
    "fields": {
      "name": "LOVETITUDE PRODUCTION CO., LTD.",
      "datetime_created": "2020-02-04T00:00:00Z",
      "account_created": "1"
    }
  },
  {
    "model": "studio.studio",
    "pk": "ST202002000088",
    "fields": {
      "name": "Boomerang",
      "datetime_created": "2020-02-04T00:00:00Z",
      "account_created": "1"
    }
  },
  {
    "model": "studio.studio",
    "pk": "ST202002000089",
    "fields": {
      "name": "MAJOR KAN",
      "datetime_created": "2020-02-04T00:00:00Z",
      "account_created": "1"
    }
  },
  {
    "model": "studio.studio",
    "pk": "ST202002000090",
    "fields": {
      "name": "MBC International",
      "datetime_created": "2020-02-04T00:00:00Z",
      "account_created": "1"
    }
  },
  {
    "model": "studio.studio",
    "pk": "ST202002000091",
    "fields": {
      "name": "MBC-S",
      "datetime_created": "2020-02-04T00:00:00Z",
      "account_created": "1"
    }
  },
  {
    "model": "studio.studio",
    "pk": "ST202002000092",
    "fields": {
      "name": "MDC",
      "datetime_created": "2020-02-04T00:00:00Z",
      "account_created": "1"
    }
  },
  {
    "model": "studio.studio",
    "pk": "ST202002000093",
    "fields": {
      "name": "Media Asia (HK)",
      "datetime_created": "2020-02-04T00:00:00Z",
      "account_created": "1"
    }
  },
  {
    "model": "studio.studio",
    "pk": "ST202002000094",
    "fields": {
      "name": "Media Caravan",
      "datetime_created": "2020-02-04T00:00:00Z",
      "account_created": "1"
    }
  },
  {
    "model": "studio.studio",
    "pk": "ST202002000095",
    "fields": {
      "name": "Media Link",
      "datetime_created": "2020-02-04T00:00:00Z",
      "account_created": "1"
    }
  },
  {
    "model": "studio.studio",
    "pk": "ST202002000096",
    "fields": {
      "name": "MEDIACORP STUDIOS",
      "datetime_created": "2020-02-04T00:00:00Z",
      "account_created": "1"
    }
  },
  {
    "model": "studio.studio",
    "pk": "ST202002000097",
    "fields": {
      "name": "MEDIALIN",
      "datetime_created": "2020-02-04T00:00:00Z",
      "account_created": "1"
    }
  },
  {
    "model": "studio.studio",
    "pk": "ST202002000098",
    "fields": {
      "name": "Medialink",
      "datetime_created": "2020-02-04T00:00:00Z",
      "account_created": "1"
    }
  },
  {
    "model": "studio.studio",
    "pk": "ST202002000099",
    "fields": {
      "name": "MEDIALINK INTERNATIONAL",
      "datetime_created": "2020-02-04T00:00:00Z",
      "account_created": "1"
    }
  },
  {
    "model": "studio.studio",
    "pk": "ST202002000100",
    "fields": {
      "name": "MGM",
      "datetime_created": "2020-02-04T00:00:00Z",
      "account_created": "1"
    }
  },
  {
    "model": "studio.studio",
    "pk": "ST202002000101",
    "fields": {
      "name": "MILIMAGES",
      "datetime_created": "2020-02-04T00:00:00Z",
      "account_created": "1"
    }
  },
  {
    "model": "studio.studio",
    "pk": "ST202002000102",
    "fields": {
      "name": "MOVIE PARTNER CO. LTD.",
      "datetime_created": "2020-02-04T00:00:00Z",
      "account_created": "1"
    }
  },
  {
    "model": "studio.studio",
    "pk": "ST202002000103",
    "fields": {
      "name": "MUSE Communications",
      "datetime_created": "2020-02-04T00:00:00Z",
      "account_created": "1"
    }
  },
  {
    "model": "studio.studio",
    "pk": "ST202002000104",
    "fields": {
      "name": "MUSHROOM",
      "datetime_created": "2020-02-04T00:00:00Z",
      "account_created": "1"
    }
  },
  {
    "model": "studio.studio",
    "pk": "ST202002000105",
    "fields": {
      "name": "NADAO",
      "datetime_created": "2020-02-04T00:00:00Z",
      "account_created": "1"
    }
  },
  {
    "model": "studio.studio",
    "pk": "ST202002000106",
    "fields": {
      "name": "Nadao Bangkok",
      "datetime_created": "2020-02-04T00:00:00Z",
      "account_created": "1"
    }
  },
  {
    "model": "studio.studio",
    "pk": "ST202002000107",
    "fields": {
      "name": "Nadsmedia",
      "datetime_created": "2020-02-04T00:00:00Z",
      "account_created": "1"
    }
  },
  {
    "model": "studio.studio",
    "pk": "ST202002000108",
    "fields": {
      "name": "NAMU&MEDIA CO.,LTD",
      "datetime_created": "2020-02-04T00:00:00Z",
      "account_created": "1"
    }
  },
  {
    "model": "studio.studio",
    "pk": "ST202002000109",
    "fields": {
      "name": "NANA",
      "datetime_created": "2020-02-04T00:00:00Z",
      "account_created": "1"
    }
  },
  {
    "model": "studio.studio",
    "pk": "ST202002000110",
    "fields": {
      "name": "NAVALARTNI",
      "datetime_created": "2020-02-04T00:00:00Z",
      "account_created": "1"
    }
  },
  {
    "model": "studio.studio",
    "pk": "ST202002000111",
    "fields": {
      "name": "Nawalart",
      "datetime_created": "2020-02-04T00:00:00Z",
      "account_created": "1"
    }
  },
  {
    "model": "studio.studio",
    "pk": "ST202002000112",
    "fields": {
      "name": "NBC Universal (US)",
      "datetime_created": "2020-02-04T00:00:00Z",
      "account_created": "1"
    }
  },
  {
    "model": "studio.studio",
    "pk": "ST202002000113",
    "fields": {
      "name": "NICHIWORLD",
      "datetime_created": "2020-02-04T00:00:00Z",
      "account_created": "1"
    }
  },
  {
    "model": "studio.studio",
    "pk": "ST202002000114",
    "fields": {
      "name": "Off The Fence",
      "datetime_created": "2020-02-04T00:00:00Z",
      "account_created": "1"
    }
  },
  {
    "model": "studio.studio",
    "pk": "ST202002000115",
    "fields": {
      "name": "ON&ON",
      "datetime_created": "2020-02-04T00:00:00Z",
      "account_created": "1"
    }
  },
  {
    "model": "studio.studio",
    "pk": "ST202002000116",
    "fields": {
      "name": "One Cool Pictures (HK)",
      "datetime_created": "2020-02-04T00:00:00Z",
      "account_created": "1"
    }
  },
  {
    "model": "studio.studio",
    "pk": "ST202002000117",
    "fields": {
      "name": "One31",
      "datetime_created": "2020-02-04T00:00:00Z",
      "account_created": "1"
    }
  },
  {
    "model": "studio.studio",
    "pk": "ST202002000118",
    "fields": {
      "name": "Orange ent",
      "datetime_created": "2020-02-04T00:00:00Z",
      "account_created": "1"
    }
  },
  {
    "model": "studio.studio",
    "pk": "ST202002000119",
    "fields": {
      "name": "ORF",
      "datetime_created": "2020-02-04T00:00:00Z",
      "account_created": "1"
    }
  },
  {
    "model": "studio.studio",
    "pk": "ST202002000120",
    "fields": {
      "name": "Paramount Pictures (US)",
      "datetime_created": "2020-02-04T00:00:00Z",
      "account_created": "1"
    }
  },
  {
    "model": "studio.studio",
    "pk": "ST202002000121",
    "fields": {
      "name": "PENPUT",
      "datetime_created": "2020-02-04T00:00:00Z",
      "account_created": "1"
    }
  },
  {
    "model": "studio.studio",
    "pk": "ST202002000122",
    "fields": {
      "name": "PIGNONINE",
      "datetime_created": "2020-02-04T00:00:00Z",
      "account_created": "1"
    }
  },
  {
    "model": "studio.studio",
    "pk": "ST202002000123",
    "fields": {
      "name": "Play Big",
      "datetime_created": "2020-02-04T00:00:00Z",
      "account_created": "1"
    }
  },
  {
    "model": "studio.studio",
    "pk": "ST202002000124",
    "fields": {
      "name": "PRIN-MEDIA",
      "datetime_created": "2020-02-04T00:00:00Z",
      "account_created": "1"
    }
  },
  {
    "model": "studio.studio",
    "pk": "ST202002000125",
    "fields": {
      "name": "PUFFIN",
      "datetime_created": "2020-02-04T00:00:00Z",
      "account_created": "1"
    }
  },
  {
    "model": "studio.studio",
    "pk": "ST202002000126",
    "fields": {
      "name": "RAYRON",
      "datetime_created": "2020-02-04T00:00:00Z",
      "account_created": "1"
    }
  },
  {
    "model": "studio.studio",
    "pk": "ST202002000127",
    "fields": {
      "name": "Red Bull",
      "datetime_created": "2020-02-04T00:00:00Z",
      "account_created": "1"
    }
  },
  {
    "model": "studio.studio",
    "pk": "ST202002000128",
    "fields": {
      "name": "REGENTACT",
      "datetime_created": "2020-02-04T00:00:00Z",
      "account_created": "1"
    }
  },
  {
    "model": "studio.studio",
    "pk": "ST202002000129",
    "fields": {
      "name": "REM",
      "datetime_created": "2020-02-04T00:00:00Z",
      "account_created": "1"
    }
  },
  {
    "model": "studio.studio",
    "pk": "ST202002000130",
    "fields": {
      "name": "Sahamonkol Film International (TH)",
      "datetime_created": "2020-02-04T00:00:00Z",
      "account_created": "1"
    }
  },
  {
    "model": "studio.studio",
    "pk": "ST202002000131",
    "fields": {
      "name": "SAPPORO",
      "datetime_created": "2020-02-04T00:00:00Z",
      "account_created": "1"
    }
  },
  {
    "model": "studio.studio",
    "pk": "ST202002000132",
    "fields": {
      "name": "SBS",
      "datetime_created": "2020-02-04T00:00:00Z",
      "account_created": "1"
    }
  },
  {
    "model": "studio.studio",
    "pk": "ST202002000133",
    "fields": {
      "name": "SERNG PRODUCTION & ORGANIZER CO. LTD.",
      "datetime_created": "2020-02-04T00:00:00Z",
      "account_created": "1"
    }
  },
  {
    "model": "studio.studio",
    "pk": "ST202002000134",
    "fields": {
      "name": "Shifter",
      "datetime_created": "2020-02-04T00:00:00Z",
      "account_created": "1"
    }
  },
  {
    "model": "studio.studio",
    "pk": "ST202002000135",
    "fields": {
      "name": "SIGME",
      "datetime_created": "2020-02-04T00:00:00Z",
      "account_created": "1"
    }
  },
  {
    "model": "studio.studio",
    "pk": "ST202002000136",
    "fields": {
      "name": "SKY VISION",
      "datetime_created": "2020-02-04T00:00:00Z",
      "account_created": "1"
    }
  },
  {
    "model": "studio.studio",
    "pk": "ST202002000137",
    "fields": {
      "name": "Sony (Animax)",
      "datetime_created": "2020-02-04T00:00:00Z",
      "account_created": "1"
    }
  },
  {
    "model": "studio.studio",
    "pk": "ST202002000138",
    "fields": {
      "name": "SONY PIC",
      "datetime_created": "2020-02-04T00:00:00Z",
      "account_created": "1"
    }
  },
  {
    "model": "studio.studio",
    "pk": "ST202002000139",
    "fields": {
      "name": "Sony Pictures (US)",
      "datetime_created": "2020-02-04T00:00:00Z",
      "account_created": "1"
    }
  },
  {
    "model": "studio.studio",
    "pk": "ST202002000140",
    "fields": {
      "name": "SOROS",
      "datetime_created": "2020-02-04T00:00:00Z",
      "account_created": "1"
    }
  },
  {
    "model": "studio.studio",
    "pk": "ST202002000141",
    "fields": {
      "name": "Spectrum",
      "datetime_created": "2020-02-04T00:00:00Z",
      "account_created": "1"
    }
  },
  {
    "model": "studio.studio",
    "pk": "ST202002000142",
    "fields": {
      "name": "STUD-HAMBG",
      "datetime_created": "2020-02-04T00:00:00Z",
      "account_created": "1"
    }
  },
  {
    "model": "studio.studio",
    "pk": "ST202002000143",
    "fields": {
      "name": "Studio Dragon",
      "datetime_created": "2020-02-04T00:00:00Z",
      "account_created": "1"
    }
  },
  {
    "model": "studio.studio",
    "pk": "ST202002000144",
    "fields": {
      "name": "Studio Dragon Corporation/CJ ENM Co., Ltd",
      "datetime_created": "2020-02-04T00:00:00Z",
      "account_created": "1"
    }
  },
  {
    "model": "studio.studio",
    "pk": "ST202002000145",
    "fields": {
      "name": "SUPERRIGHT",
      "datetime_created": "2020-02-04T00:00:00Z",
      "account_created": "1"
    }
  },
  {
    "model": "studio.studio",
    "pk": "ST202002000146",
    "fields": {
      "name": "TALENT ONE",
      "datetime_created": "2020-02-04T00:00:00Z",
      "account_created": "1"
    }
  },
  {
    "model": "studio.studio",
    "pk": "ST202002000147",
    "fields": {
      "name": "The Cloud",
      "datetime_created": "2020-02-04T00:00:00Z",
      "account_created": "1"
    }
  },
  {
    "model": "studio.studio",
    "pk": "ST202002000148",
    "fields": {
      "name": "TIGA",
      "datetime_created": "2020-02-04T00:00:00Z",
      "account_created": "1"
    }
  },
  {
    "model": "studio.studio",
    "pk": "ST202002000149",
    "fields": {
      "name": "Toei Animation",
      "datetime_created": "2020-02-04T00:00:00Z",
      "account_created": "1"
    }
  },
  {
    "model": "studio.studio",
    "pk": "ST202002000150",
    "fields": {
      "name": "TOONZ",
      "datetime_created": "2020-02-04T00:00:00Z",
      "account_created": "1"
    }
  },
  {
    "model": "studio.studio",
    "pk": "ST202002000151",
    "fields": {
      "name": "True CJ",
      "datetime_created": "2020-02-04T00:00:00Z",
      "account_created": "1"
    }
  },
  {
    "model": "studio.studio",
    "pk": "ST202002000152",
    "fields": {
      "name": "True Inside",
      "datetime_created": "2020-02-04T00:00:00Z",
      "account_created": "1"
    }
  },
  {
    "model": "studio.studio",
    "pk": "ST202002000153",
    "fields": {
      "name": "NANGNA",
      "datetime_created": "2020-02-04T00:00:00Z",
      "account_created": "1"
    }
  },
  {
    "model": "studio.studio",
    "pk": "ST202002000154",
    "fields": {
      "name": "SONG SOUND",
      "datetime_created": "2020-02-04T00:00:00Z",
      "account_created": "1"
    }
  },
  {
    "model": "studio.studio",
    "pk": "ST202002000155",
    "fields": {
      "name": "\u0e41\u0e15\u0e07\u0e01\u0e27\u0e32",
      "datetime_created": "2020-02-04T00:00:00Z",
      "account_created": "1"
    }
  },
  {
    "model": "studio.studio",
    "pk": "ST202002000156",
    "fields": {
      "name": "\u0e1a\u0e25\u0e39\u0e23\u0e34\u0e07\u0e04\u0e4c",
      "datetime_created": "2020-02-04T00:00:00Z",
      "account_created": "1"
    }
  },
  {
    "model": "studio.studio",
    "pk": "ST202002000157",
    "fields": {
      "name": "\u0e21\u0e07\u0e04\u0e25\u0e0a\u0e31\u0e22",
      "datetime_created": "2020-02-04T00:00:00Z",
      "account_created": "1"
    }
  },
  {
    "model": "studio.studio",
    "pk": "ST202002000158",
    "fields": {
      "name": "True4U",
      "datetime_created": "2020-02-04T00:00:00Z",
      "account_created": "1"
    }
  },
  {
    "model": "studio.studio",
    "pk": "ST202002000159",
    "fields": {
      "name": "TSS-TV CO. LTD.",
      "datetime_created": "2020-02-04T00:00:00Z",
      "account_created": "1"
    }
  },
  {
    "model": "studio.studio",
    "pk": "ST202002000160",
    "fields": {
      "name": "Turner",
      "datetime_created": "2020-02-04T00:00:00Z",
      "account_created": "1"
    }
  },
  {
    "model": "studio.studio",
    "pk": "ST202002000161",
    "fields": {
      "name": "TV ASAHI",
      "datetime_created": "2020-02-04T00:00:00Z",
      "account_created": "1"
    }
  },
  {
    "model": "studio.studio",
    "pk": "ST202002000162",
    "fields": {
      "name": "TVH",
      "datetime_created": "2020-02-04T00:00:00Z",
      "account_created": "1"
    }
  },
  {
    "model": "studio.studio",
    "pk": "ST202002000163",
    "fields": {
      "name": "TVONLY",
      "datetime_created": "2020-02-04T00:00:00Z",
      "account_created": "1"
    }
  },
  {
    "model": "studio.studio",
    "pk": "ST202002000164",
    "fields": {
      "name": "TWOFOUR",
      "datetime_created": "2020-02-04T00:00:00Z",
      "account_created": "1"
    }
  },
  {
    "model": "studio.studio",
    "pk": "ST202002000165",
    "fields": {
      "name": "UBC",
      "datetime_created": "2020-02-04T00:00:00Z",
      "account_created": "1"
    }
  },
  {
    "model": "studio.studio",
    "pk": "ST202002000166",
    "fields": {
      "name": "Universe Films (HK)",
      "datetime_created": "2020-02-04T00:00:00Z",
      "account_created": "1"
    }
  },
  {
    "model": "studio.studio",
    "pk": "ST202002000167",
    "fields": {
      "name": "VERY",
      "datetime_created": "2020-02-04T00:00:00Z",
      "account_created": "1"
    }
  },
  {
    "model": "studio.studio",
    "pk": "ST202002000168",
    "fields": {
      "name": "Walt Disney (US)",
      "datetime_created": "2020-02-04T00:00:00Z",
      "account_created": "1"
    }
  },
  {
    "model": "studio.studio",
    "pk": "ST202002000169",
    "fields": {
      "name": "Warner Bros (US)",
      "datetime_created": "2020-02-04T00:00:00Z",
      "account_created": "1"
    }
  },
  {
    "model": "studio.studio",
    "pk": "ST202002000170",
    "fields": {
      "name": "Wen An",
      "datetime_created": "2020-02-04T00:00:00Z",
      "account_created": "1"
    }
  },
  {
    "model": "studio.studio",
    "pk": "ST202002000171",
    "fields": {
      "name": "Wen An Entertainment Co. Ltd.",
      "datetime_created": "2020-02-04T00:00:00Z",
      "account_created": "1"
    }
  },
  {
    "model": "studio.studio",
    "pk": "ST202002000172",
    "fields": {
      "name": "WHYNOT",
      "datetime_created": "2020-02-04T00:00:00Z",
      "account_created": "1"
    }
  },
  {
    "model": "studio.studio",
    "pk": "ST202002000173",
    "fields": {
      "name": "Whynot Media",
      "datetime_created": "2020-02-04T00:00:00Z",
      "account_created": "1"
    }
  },
  {
    "model": "studio.studio",
    "pk": "ST202002000174",
    "fields": {
      "name": "Ying Group",
      "datetime_created": "2020-02-04T00:00:00Z",
      "account_created": "1"
    }
  },
  {
    "model": "studio.studio",
    "pk": "ST202002000175",
    "fields": {
      "name": "YOUNGTOYS",
      "datetime_created": "2020-02-04T00:00:00Z",
      "account_created": "1"
    }
  },
  {
    "model": "studio.studio",
    "pk": "ST202002000176",
    "fields": {
      "name": "ZED",
      "datetime_created": "2020-02-04T00:00:00Z",
      "account_created": "1"
    }
  },
  {
    "model": "studio.studio",
    "pk": "ST202002000177",
    "fields": {
      "name": "Zodiak kids",
      "datetime_created": "2020-02-04T00:00:00Z",
      "account_created": "1"
    }
  },
  {
    "model": "studio.studio",
    "pk": "ST202002000178",
    "fields": {
      "name": "\u0e42\u0e19\u0e41\u0e21\u0e14\u0e34\u0e04",
      "datetime_created": "2020-02-04T00:00:00Z",
      "account_created": "1"
    }
  },
  {
    "model": "studio.studio",
    "pk": "ST202002000179",
    "fields": {
      "name": "\u0e1a\u0e23\u0e34\u0e29\u0e31\u0e17 \u0e40\u0e14\u0e2d\u0e42\u0e1f\u0e23\u0e4c\u0e17\u0e35\u0e27\u0e35 \u0e08\u0e33\u0e01\u0e31\u0e14",
      "datetime_created": "2020-02-04T00:00:00Z",
      "account_created": "1"
    }
  },
  {
    "model": "studio.studio",
    "pk": "ST202002000180",
    "fields": {
      "name": "\u0e1a\u0e23\u0e34\u0e29\u0e31\u0e17 \u0e17\u0e33\u0e21\u0e30\u0e2d\u0e30\u0e17\u0e33 \u0e08\u0e33\u0e01\u0e31\u0e14",
      "datetime_created": "2020-02-04T00:00:00Z",
      "account_created": "1"
    }
  },
  {
    "model": "studio.studio",
    "pk": "ST202002000181",
    "fields": {
      "name": "\u0e1b\u0e34\u0e22\u0e30\u0e09\u0e31\u0e15\u0e23 \u0e19\u0e32\u0e04\u0e20\u0e39\u0e48",
      "datetime_created": "2020-02-04T00:00:00Z",
      "account_created": "1"
    }
  },
  {
    "model": "studio.studio",
    "pk": "ST202002000182",
    "fields": {
      "name": "\u0e40\u0e27\u0e25\u0e25\u0e4c\u0e14\u0e31\u0e19",
      "datetime_created": "2020-02-04T00:00:00Z",
      "account_created": "1"
    }
  },
  {
    "model": "studio.studio",
    "pk": "ST202002000183",
    "fields": {
      "name": "\u0e2a\u0e15\u0e23\u0e34\u0e1b\u0e40\u0e1b\u0e2d\u0e23\u0e4c",
      "datetime_created": "2020-02-04T00:00:00Z",
      "account_created": "1"
    }
  },
  {
    "model": "studio.studio",
    "pk": "ST202002000184",
    "fields": {
      "name": "\u0e40\u0e2d\u0e1f\u0e40\u0e15\u0e49",
      "datetime_created": "2020-02-04T00:00:00Z",
      "account_created": "1"
    }
  },
  {
    "model": "studio.studio",
    "pk": "ST202002000185",
    "fields": {
      "name": "\u0e42\u0e2d\u0e0b\u0e35\u0e40\u0e19\u0e21\u0e48\u0e32",
      "datetime_created": "2020-02-04T00:00:00Z",
      "account_created": "1"
    }
  },
  {
    "model": "studio.studio",
    "pk": "ST202002000186",
    "fields": {
      "name": "\u0e40\u0e2e\u0e32\u0e2a\u0e4c \u0e2d\u0e2d\u0e1f",
      "datetime_created": "2020-02-04T00:00:00Z",
      "account_created": "1"
    }
  },
  {
    "model": "studio.studio",
    "pk": "ST202002000187",
    "fields": {
      "name": "CFG",
      "datetime_created": "2020-02-04T00:00:00Z",
      "account_created": "1"
    }
  },
  {
    "model": "studio.studio",
    "pk": "ST202002000188",
    "fields": {
      "name": "Chips and Toon",
      "datetime_created": "2020-02-04T00:00:00Z",
      "account_created": "1"
    }
  },
  {
    "model": "studio.studio",
    "pk": "ST202002000189",
    "fields": {
      "name": "Hasbro",
      "datetime_created": "2020-02-04T00:00:00Z",
      "account_created": "1"
    }
  },
  {
    "model": "studio.studio",
    "pk": "ST202002000190",
    "fields": {
      "name": "Viacom",
      "datetime_created": "2020-02-04T00:00:00Z",
      "account_created": "1"
    }
  },
  {
    "model": "studio.studio",
    "pk": "ST202002000191",
    "fields": {
      "name": "Transformation Films (TH)",
      "datetime_created": "2020-02-04T00:00:00Z",
      "account_created": "1"
    }
  },
  {
    "model": "studio.studio",
    "pk": "ST202002000192",
    "fields": {
      "name": "\u0e40\u0e0b\u0e34\u0e49\u0e07 \u0e42\u0e1b\u0e23\u0e14\u0e31\u0e01\u0e0a\u0e31\u0e48\u0e19 (TH)",
      "datetime_created": "2020-02-04T00:00:00Z",
      "account_created": "1"
    }
  },
  {
    "model": "studio.studio",
    "pk": "ST202002000193",
    "fields": {
      "name": "Movie Partner (TH)",
      "datetime_created": "2020-02-04T00:00:00Z",
      "account_created": "1"
    }
  },
  {
    "model": "studio.studio",
    "pk": "ST202002000194",
    "fields": {
      "name": "Deutsche Welle",
      "datetime_created": "2020-02-04T00:00:00Z",
      "account_created": "1"
    }
  },
  {
    "model": "studio.studio",
    "pk": "ST202002000195",
    "fields": {
      "name": "TIGA Entertainment",
      "datetime_created": "2020-02-04T00:00:00Z",
      "account_created": "1"
    }
  },
  {
    "model": "studio.studio",
    "pk": "ST202002000196",
    "fields": {
      "name": "Mongkol Major",
      "datetime_created": "2020-02-04T00:00:00Z",
      "account_created": "1"
    }
  },
  {
    "model": "studio.studio",
    "pk": "ST202002000197",
    "fields": {
      "name": "M Pictures",
      "datetime_created": "2020-02-04T00:00:00Z",
      "account_created": "1"
    }
  },
  {
    "model": "studio.studio",
    "pk": "ST202002000198",
    "fields": {
      "name": "\u0e04\u0e2d\u0e23\u0e31\u0e25 \u0e04\u0e31\u0e25\u0e40\u0e08\u0e2d\u0e23\u0e4c \u0e41\u0e2d\u0e19\u0e14\u0e4c \u0e04\u0e2d\u0e19\u0e40\u0e17\u0e49\u0e19\u0e17\u0e4c",
      "datetime_created": "2020-02-04T00:00:00Z",
      "account_created": "1"
    }
  },
  {
    "model": "studio.studio",
    "pk": "ST202002000199",
    "fields": {
      "name": "Lionsgate",
      "datetime_created": "2020-02-04T00:00:00Z",
      "account_created": "1"
    }
  }
]
