[
  {
    "model": "config.system",
    "pk": 1,
    "fields": {
      "value": "Cancel",
      "group_name": "DEAL_STATUS",
      "datetime_created": "2020-03-25T05:50:22Z",
      "account_created": "SYSTEM"
    }
  },
  {
    "model": "config.system",
    "pk": 2,
    "fields": {
      "value": "Open",
      "group_name": "DEAL_STATUS",
      "datetime_created": "2020-03-25T05:50:22Z",
      "account_created": "SYSTEM"
    }
  },
  {
    "model": "config.system",
    "pk": 14,
    "fields": {
      "group_name": "DEAL_STATUS",
      "value": "Complete",
      "datetime_created": "2020-03-25T05:50:22Z",
      "account_created": "SYSTEM"
    }
  },
  {
    "model": "config.system",
    "pk": 3,
    "fields": {
      "value": "SUBTITLE",
      "group_name": "LOCALIZE_TYPE",
      "datetime_created": "2020-01-22T00:00:00Z",
      "account_created": "SYSTEM"
    }
  },
  {
    "model": "config.system",
    "pk": 4,
    "fields": {
      "group_name": "LOCALIZE_TYPE",
      "value": "DUBBING",
      "datetime_created": "2020-01-22T00:00:00Z",
      "account_created": "SYSTEM"
    }
  },
  {
    "model": "config.system",
    "pk": 5,
    "fields": {
      "value": "PORTAIT",
      "group_name": "THUMNAIL_TAG",
      "datetime_created": "2020-01-22T00:00:00Z",
      "account_created": "SYSTEM"
    }
  },
  {
    "model": "config.system",
    "pk": 15,
    "fields": {
      "value": "LANDSCAPE",
      "group_name": "THUMNAIL_TAG",
      "datetime_created": "2020-01-22T00:00:00Z",
      "account_created": "SYSTEM"
    }
  },
  {
    "model": "config.system",
    "pk": 6,
    "fields": {
      "value": "TRUE_ID_LANDSCAPE",
      "datetime_created": "2020-03-30T17:26:18Z",
      "group_name": "THUMNAIL_TAG",
      "account_created": "config"
    }
  },
  {
    "model": "config.system",
    "pk": 7,
    "fields": {
      "group_name": "THUMNAIL_TAG",
      "value": "POSTER",
      "datetime_created": "2020-03-30T17:26:18Z",
      "account_created": "config"
    }
  },
  {
    "model": "config.system",
    "pk": 8,
    "fields": {
      "value": "OTT_PORTRAIT",
      "group_name": "THUMNAIL_TAG",
      "datetime_created": "2020-03-30T17:26:18Z",
      "account_created": "config"
    }
  },
  {
    "model": "config.system",
    "pk": 9,
    "fields": {
      "value": "OTT_LANDSCAPE",
      "group_name": "THUMNAIL_TAG",
      "datetime_created": "2020-03-30T17:26:18Z",
      "account_created": "config"
    }
  },
  {
    "model": "config.system",
    "pk": 10,
    "fields": {
      "group_name": "THUMNAIL_TAG",
      "value": "SQUARE",
      "datetime_created": "2020-03-30T17:26:18Z",
      "account_created": "config"
    }
  },
  {
    "model": "config.system",
    "pk": 11,
    "fields": {
      "group_name": "THUMNAIL_TAG",
      "value": "PORTRAIT",
      "datetime_created": "2020-03-30T17:26:18Z",
      "account_created": "config"
    }
  },
  {
    "model": "config.system",
    "pk": 12,
    "fields": {
      "group_name": "TITLE_STATUS",
      "value": "Complete",
      "datetime_created": "2020-01-22T00:00:00Z",
      "account_created": "SYSTEM"
    }
  },
  {
    "model": "config.system",
    "pk": 13,
    "fields": {
      "group_name": "TITLE_STATUS",
      "value": "Select",
      "datetime_created": "2020-01-22T00:00:00Z",
      "account_created": "SYSTEM"
    }
  },
  {
    "model": "config.system",
    "pk": 16,
    "fields": {
      "group_name": "TITLE_TYPE",
      "value": "NON-SERIES",
      "datetime_created": "2020-04-17T02:49:09Z",
      "account_created": "config"
    }
  },
  {
    "model": "config.system",
    "pk": 17,
    "fields": {
      "group_name": "TITLE_TYPE",
      "value": "SERIES",
      "datetime_created": "2020-04-17T02:48:59Z",
      "account_created": "config"
    }
  },
  {
    "model": "config.system",
    "pk": 18,
    "fields": {
      "group_name": "VOD_TYPE",
      "value": "{\"type\": \"CVOD\", \"is_enable\": true, \"is_mg\": false, \"is_deem_price\": false, \"is_rev_share\": false}",
      "datetime_created": "2020-04-09T09:29:43Z",
      "account_created": "config"
    }
  },
  {
    "model": "config.system",
    "pk": 19,
    "fields": {
      "group_name": "VOD_TYPE",
      "value": "{\"type\": \"SVOD\", \"is_enable\": true, \"is_mg\": true, \"is_deem_price\": false, \"is_rev_share\": false}",
      "datetime_created": "2020-04-09T09:29:43Z",
      "account_created": "config"
    }
  },
  {
    "model": "config.system",
    "pk": 20,
    "fields": {
      "group_name": "VOD_TYPE",
      "value": "{\"type\": \"AVOD\", \"is_enable\": true, \"is_mg\": true, \"is_deem_price\": false, \"is_rev_share\": true}",
      "datetime_created": "2020-04-09T09:29:45Z",
      "account_created": "config"
    }
  },
  {
    "model": "config.system",
    "pk": 21,
    "fields": {
      "group_name": "VOD_TYPE",
      "value": "{\"type\": \"TVOD\", \"is_enable\": true, \"is_mg\": true, \"is_deem_price\": true, \"is_rev_share\": true}",
      "datetime_created": "2020-04-09T09:29:43Z",
      "account_created": "config"
    }
  }
]
